^F:\Subject\C++\GearDesignGuide\GearDesignGuide\GearDesignGuide.vcxproj
F:\Subject\C++\GearDesignGuide\x64\Release\GearDesignGuide.lib
F:\Subject\C++\GearDesignGuide\x64\Release\GearDesignGuide.exp
^F:\Subject\C++\GearDesignGuide\GearDesignGuide\GearDesignGuide.vcxproj
F:\Subject\C++\GearDesignGuide\x64\Release\GearDesignGuide.lib
F:\Subject\C++\GearDesignGuide\x64\Release\GearDesignGuide.exp
