(['F:\\Subject\\C++\\GearDesignGuide\\x64\\Release\\GearDesignGuide.py'],
 ['F:\\Subject\\C++\\GearDesignGuide\\x64\\Release'],
 ['codecs'],
 ['E:\\Application\\Python\\Python39\\lib\\site-packages\\_pyinstaller_hooks_contrib\\hooks\\stdhooks',
  'E:\\Application\\Python\\Python39\\lib\\site-packages\\_pyinstaller_hooks_contrib\\hooks\\stdhooks\\__pycache__',
  'E:\\Application\\Python\\Python39\\lib\\site-packages\\_pyinstaller_hooks_contrib\\hooks\\rthooks',
  'E:\\Application\\Python\\Python39\\lib\\site-packages\\_pyinstaller_hooks_contrib\\hooks\\rthooks\\__pycache__',
  'E:\\Application\\Python\\Python39\\lib\\site-packages\\_pyinstaller_hooks_contrib\\hooks',
  'E:\\Application\\Python\\Python39\\Lib\\site-packages\\numpy\\_pyinstaller'],
 {},
 [],
 [],
 False,
 False,
 False,
 {},
 '3.9.13 (tags/v3.9.13:6de2ca5, May 17 2022, 16:36:42) [MSC v.1929 64 bit '
 '(AMD64)]',
 [('pyi_rth_subprocess',
   'E:\\Application\\Python\\Python39\\Lib\\site-packages\\PyInstaller\\hooks\\rthooks\\pyi_rth_subprocess.py',
   'PYSOURCE'),
  ('pyi_rth_pyside2',
   'E:\\Application\\Python\\Python39\\Lib\\site-packages\\PyInstaller\\hooks\\rthooks\\pyi_rth_pyside2.py',
   'PYSOURCE'),
  ('pyi_rth_inspect',
   'E:\\Application\\Python\\Python39\\Lib\\site-packages\\PyInstaller\\hooks\\rthooks\\pyi_rth_inspect.py',
   'PYSOURCE'),
  ('GearDesignGuide',
   'F:\\Subject\\C++\\GearDesignGuide\\x64\\Release\\GearDesignGuide.py',
   'PYSOURCE')],
 [('inspect', 'E:\\Application\\Python\\Python39\\lib\\inspect.py', 'PYMODULE'),
  ('importlib',
   'E:\\Application\\Python\\Python39\\lib\\importlib\\__init__.py',
   'PYMODULE'),
  ('importlib._common',
   'E:\\Application\\Python\\Python39\\lib\\importlib\\_common.py',
   'PYMODULE'),
  ('contextlib',
   'E:\\Application\\Python\\Python39\\lib\\contextlib.py',
   'PYMODULE'),
  ('tempfile',
   'E:\\Application\\Python\\Python39\\lib\\tempfile.py',
   'PYMODULE'),
  ('random', 'E:\\Application\\Python\\Python39\\lib\\random.py', 'PYMODULE'),
  ('statistics',
   'E:\\Application\\Python\\Python39\\lib\\statistics.py',
   'PYMODULE'),
  ('fractions',
   'E:\\Application\\Python\\Python39\\lib\\fractions.py',
   'PYMODULE'),
  ('numbers', 'E:\\Application\\Python\\Python39\\lib\\numbers.py', 'PYMODULE'),
  ('hashlib', 'E:\\Application\\Python\\Python39\\lib\\hashlib.py', 'PYMODULE'),
  ('logging',
   'E:\\Application\\Python\\Python39\\lib\\logging\\__init__.py',
   'PYMODULE'),
  ('pickle', 'E:\\Application\\Python\\Python39\\lib\\pickle.py', 'PYMODULE'),
  ('pprint', 'E:\\Application\\Python\\Python39\\lib\\pprint.py', 'PYMODULE'),
  ('_compat_pickle',
   'E:\\Application\\Python\\Python39\\lib\\_compat_pickle.py',
   'PYMODULE'),
  ('struct', 'E:\\Application\\Python\\Python39\\lib\\struct.py', 'PYMODULE'),
  ('threading',
   'E:\\Application\\Python\\Python39\\lib\\threading.py',
   'PYMODULE'),
  ('_threading_local',
   'E:\\Application\\Python\\Python39\\lib\\_threading_local.py',
   'PYMODULE'),
  ('string', 'E:\\Application\\Python\\Python39\\lib\\string.py', 'PYMODULE'),
  ('bisect', 'E:\\Application\\Python\\Python39\\lib\\bisect.py', 'PYMODULE'),
  ('shutil', 'E:\\Application\\Python\\Python39\\lib\\shutil.py', 'PYMODULE'),
  ('tarfile', 'E:\\Application\\Python\\Python39\\lib\\tarfile.py', 'PYMODULE'),
  ('gzip', 'E:\\Application\\Python\\Python39\\lib\\gzip.py', 'PYMODULE'),
  ('_compression',
   'E:\\Application\\Python\\Python39\\lib\\_compression.py',
   'PYMODULE'),
  ('copy', 'E:\\Application\\Python\\Python39\\lib\\copy.py', 'PYMODULE'),
  ('lzma', 'E:\\Application\\Python\\Python39\\lib\\lzma.py', 'PYMODULE'),
  ('bz2', 'E:\\Application\\Python\\Python39\\lib\\bz2.py', 'PYMODULE'),
  ('zipfile', 'E:\\Application\\Python\\Python39\\lib\\zipfile.py', 'PYMODULE'),
  ('py_compile',
   'E:\\Application\\Python\\Python39\\lib\\py_compile.py',
   'PYMODULE'),
  ('importlib.util',
   'E:\\Application\\Python\\Python39\\lib\\importlib\\util.py',
   'PYMODULE'),
  ('importlib.abc',
   'E:\\Application\\Python\\Python39\\lib\\importlib\\abc.py',
   'PYMODULE'),
  ('typing', 'E:\\Application\\Python\\Python39\\lib\\typing.py', 'PYMODULE'),
  ('importlib._bootstrap_external',
   'E:\\Application\\Python\\Python39\\lib\\importlib\\_bootstrap_external.py',
   'PYMODULE'),
  ('importlib.metadata',
   'E:\\Application\\Python\\Python39\\lib\\importlib\\metadata.py',
   'PYMODULE'),
  ('configparser',
   'E:\\Application\\Python\\Python39\\lib\\configparser.py',
   'PYMODULE'),
  ('email',
   'E:\\Application\\Python\\Python39\\lib\\email\\__init__.py',
   'PYMODULE'),
  ('email.parser',
   'E:\\Application\\Python\\Python39\\lib\\email\\parser.py',
   'PYMODULE'),
  ('email._policybase',
   'E:\\Application\\Python\\Python39\\lib\\email\\_policybase.py',
   'PYMODULE'),
  ('email.utils',
   'E:\\Application\\Python\\Python39\\lib\\email\\utils.py',
   'PYMODULE'),
  ('email._parseaddr',
   'E:\\Application\\Python\\Python39\\lib\\email\\_parseaddr.py',
   'PYMODULE'),
  ('calendar',
   'E:\\Application\\Python\\Python39\\lib\\calendar.py',
   'PYMODULE'),
  ('datetime',
   'E:\\Application\\Python\\Python39\\lib\\datetime.py',
   'PYMODULE'),
  ('_strptime',
   'E:\\Application\\Python\\Python39\\lib\\_strptime.py',
   'PYMODULE'),
  ('socket', 'E:\\Application\\Python\\Python39\\lib\\socket.py', 'PYMODULE'),
  ('selectors',
   'E:\\Application\\Python\\Python39\\lib\\selectors.py',
   'PYMODULE'),
  ('email.feedparser',
   'E:\\Application\\Python\\Python39\\lib\\email\\feedparser.py',
   'PYMODULE'),
  ('email.message',
   'E:\\Application\\Python\\Python39\\lib\\email\\message.py',
   'PYMODULE'),
  ('email.policy',
   'E:\\Application\\Python\\Python39\\lib\\email\\policy.py',
   'PYMODULE'),
  ('email.contentmanager',
   'E:\\Application\\Python\\Python39\\lib\\email\\contentmanager.py',
   'PYMODULE'),
  ('email.quoprimime',
   'E:\\Application\\Python\\Python39\\lib\\email\\quoprimime.py',
   'PYMODULE'),
  ('email.headerregistry',
   'E:\\Application\\Python\\Python39\\lib\\email\\headerregistry.py',
   'PYMODULE'),
  ('email.iterators',
   'E:\\Application\\Python\\Python39\\lib\\email\\iterators.py',
   'PYMODULE'),
  ('email.generator',
   'E:\\Application\\Python\\Python39\\lib\\email\\generator.py',
   'PYMODULE'),
  ('email._encoded_words',
   'E:\\Application\\Python\\Python39\\lib\\email\\_encoded_words.py',
   'PYMODULE'),
  ('base64', 'E:\\Application\\Python\\Python39\\lib\\base64.py', 'PYMODULE'),
  ('getopt', 'E:\\Application\\Python\\Python39\\lib\\getopt.py', 'PYMODULE'),
  ('gettext', 'E:\\Application\\Python\\Python39\\lib\\gettext.py', 'PYMODULE'),
  ('quopri', 'E:\\Application\\Python\\Python39\\lib\\quopri.py', 'PYMODULE'),
  ('uu', 'E:\\Application\\Python\\Python39\\lib\\uu.py', 'PYMODULE'),
  ('optparse',
   'E:\\Application\\Python\\Python39\\lib\\optparse.py',
   'PYMODULE'),
  ('textwrap',
   'E:\\Application\\Python\\Python39\\lib\\textwrap.py',
   'PYMODULE'),
  ('email._header_value_parser',
   'E:\\Application\\Python\\Python39\\lib\\email\\_header_value_parser.py',
   'PYMODULE'),
  ('email.header',
   'E:\\Application\\Python\\Python39\\lib\\email\\header.py',
   'PYMODULE'),
  ('email.base64mime',
   'E:\\Application\\Python\\Python39\\lib\\email\\base64mime.py',
   'PYMODULE'),
  ('email.charset',
   'E:\\Application\\Python\\Python39\\lib\\email\\charset.py',
   'PYMODULE'),
  ('email.encoders',
   'E:\\Application\\Python\\Python39\\lib\\email\\encoders.py',
   'PYMODULE'),
  ('email.errors',
   'E:\\Application\\Python\\Python39\\lib\\email\\errors.py',
   'PYMODULE'),
  ('importlib._bootstrap',
   'E:\\Application\\Python\\Python39\\lib\\importlib\\_bootstrap.py',
   'PYMODULE'),
  ('argparse',
   'E:\\Application\\Python\\Python39\\lib\\argparse.py',
   'PYMODULE'),
  ('importlib.machinery',
   'E:\\Application\\Python\\Python39\\lib\\importlib\\machinery.py',
   'PYMODULE'),
  ('dis', 'E:\\Application\\Python\\Python39\\lib\\dis.py', 'PYMODULE'),
  ('opcode', 'E:\\Application\\Python\\Python39\\lib\\opcode.py', 'PYMODULE'),
  ('ast', 'E:\\Application\\Python\\Python39\\lib\\ast.py', 'PYMODULE'),
  ('subprocess',
   'E:\\Application\\Python\\Python39\\lib\\subprocess.py',
   'PYMODULE'),
  ('signal', 'E:\\Application\\Python\\Python39\\lib\\signal.py', 'PYMODULE'),
  ('tracemalloc',
   'E:\\Application\\Python\\Python39\\lib\\tracemalloc.py',
   'PYMODULE'),
  ('_py_abc', 'E:\\Application\\Python\\Python39\\lib\\_py_abc.py', 'PYMODULE'),
  ('stringprep',
   'E:\\Application\\Python\\Python39\\lib\\stringprep.py',
   'PYMODULE'),
  ('getpass', 'E:\\Application\\Python\\Python39\\lib\\getpass.py', 'PYMODULE'),
  ('nturl2path',
   'E:\\Application\\Python\\Python39\\lib\\nturl2path.py',
   'PYMODULE'),
  ('ftplib', 'E:\\Application\\Python\\Python39\\lib\\ftplib.py', 'PYMODULE'),
  ('netrc', 'E:\\Application\\Python\\Python39\\lib\\netrc.py', 'PYMODULE'),
  ('shlex', 'E:\\Application\\Python\\Python39\\lib\\shlex.py', 'PYMODULE'),
  ('mimetypes',
   'E:\\Application\\Python\\Python39\\lib\\mimetypes.py',
   'PYMODULE'),
  ('http.cookiejar',
   'E:\\Application\\Python\\Python39\\lib\\http\\cookiejar.py',
   'PYMODULE'),
  ('http',
   'E:\\Application\\Python\\Python39\\lib\\http\\__init__.py',
   'PYMODULE'),
  ('ssl', 'E:\\Application\\Python\\Python39\\lib\\ssl.py', 'PYMODULE'),
  ('http.client',
   'E:\\Application\\Python\\Python39\\lib\\http\\client.py',
   'PYMODULE'),
  ('requests',
   'E:\\Application\\Python\\Python39\\lib\\site-packages\\requests\\__init__.py',
   'PYMODULE'),
  ('requests.status_codes',
   'E:\\Application\\Python\\Python39\\lib\\site-packages\\requests\\status_codes.py',
   'PYMODULE'),
  ('requests.structures',
   'E:\\Application\\Python\\Python39\\lib\\site-packages\\requests\\structures.py',
   'PYMODULE'),
  ('requests.compat',
   'E:\\Application\\Python\\Python39\\lib\\site-packages\\requests\\compat.py',
   'PYMODULE'),
  ('http.cookies',
   'E:\\Application\\Python\\Python39\\lib\\http\\cookies.py',
   'PYMODULE'),
  ('json',
   'E:\\Application\\Python\\Python39\\lib\\json\\__init__.py',
   'PYMODULE'),
  ('json.encoder',
   'E:\\Application\\Python\\Python39\\lib\\json\\encoder.py',
   'PYMODULE'),
  ('json.decoder',
   'E:\\Application\\Python\\Python39\\lib\\json\\decoder.py',
   'PYMODULE'),
  ('json.scanner',
   'E:\\Application\\Python\\Python39\\lib\\json\\scanner.py',
   'PYMODULE'),
  ('requests.models',
   'E:\\Application\\Python\\Python39\\lib\\site-packages\\requests\\models.py',
   'PYMODULE'),
  ('idna',
   'E:\\Application\\Python\\Python39\\lib\\site-packages\\idna\\__init__.py',
   'PYMODULE'),
  ('idna.intranges',
   'E:\\Application\\Python\\Python39\\lib\\site-packages\\idna\\intranges.py',
   'PYMODULE'),
  ('idna.core',
   'E:\\Application\\Python\\Python39\\lib\\site-packages\\idna\\core.py',
   'PYMODULE'),
  ('idna.uts46data',
   'E:\\Application\\Python\\Python39\\lib\\site-packages\\idna\\uts46data.py',
   'PYMODULE'),
  ('idna.idnadata',
   'E:\\Application\\Python\\Python39\\lib\\site-packages\\idna\\idnadata.py',
   'PYMODULE'),
  ('idna.package_data',
   'E:\\Application\\Python\\Python39\\lib\\site-packages\\idna\\package_data.py',
   'PYMODULE'),
  ('requests.hooks',
   'E:\\Application\\Python\\Python39\\lib\\site-packages\\requests\\hooks.py',
   'PYMODULE'),
  ('requests.cookies',
   'E:\\Application\\Python\\Python39\\lib\\site-packages\\requests\\cookies.py',
   'PYMODULE'),
  ('requests.auth',
   'E:\\Application\\Python\\Python39\\lib\\site-packages\\requests\\auth.py',
   'PYMODULE'),
  ('requests._internal_utils',
   'E:\\Application\\Python\\Python39\\lib\\site-packages\\requests\\_internal_utils.py',
   'PYMODULE'),
  ('urllib3.util',
   'E:\\Application\\Python\\Python39\\lib\\site-packages\\urllib3\\util\\__init__.py',
   'PYMODULE'),
  ('urllib3.util.wait',
   'E:\\Application\\Python\\Python39\\lib\\site-packages\\urllib3\\util\\wait.py',
   'PYMODULE'),
  ('urllib3.util.url',
   'E:\\Application\\Python\\Python39\\lib\\site-packages\\urllib3\\util\\url.py',
   'PYMODULE'),
  ('urllib3.packages.six',
   'E:\\Application\\Python\\Python39\\lib\\site-packages\\urllib3\\packages\\six.py',
   'PYMODULE'),
  ('urllib3.packages',
   'E:\\Application\\Python\\Python39\\lib\\site-packages\\urllib3\\packages\\__init__.py',
   'PYMODULE'),
  ('urllib3.util.timeout',
   'E:\\Application\\Python\\Python39\\lib\\site-packages\\urllib3\\util\\timeout.py',
   'PYMODULE'),
  ('urllib3.util.ssl_',
   'E:\\Application\\Python\\Python39\\lib\\site-packages\\urllib3\\util\\ssl_.py',
   'PYMODULE'),
  ('urllib3.util.ssltransport',
   'E:\\Application\\Python\\Python39\\lib\\site-packages\\urllib3\\util\\ssltransport.py',
   'PYMODULE'),
  ('hmac', 'E:\\Application\\Python\\Python39\\lib\\hmac.py', 'PYMODULE'),
  ('urllib3.util.retry',
   'E:\\Application\\Python\\Python39\\lib\\site-packages\\urllib3\\util\\retry.py',
   'PYMODULE'),
  ('urllib3.util.response',
   'E:\\Application\\Python\\Python39\\lib\\site-packages\\urllib3\\util\\response.py',
   'PYMODULE'),
  ('queue', 'E:\\Application\\Python\\Python39\\lib\\queue.py', 'PYMODULE'),
  ('urllib3.util.request',
   'E:\\Application\\Python\\Python39\\lib\\site-packages\\urllib3\\util\\request.py',
   'PYMODULE'),
  ('urllib3.util.connection',
   'E:\\Application\\Python\\Python39\\lib\\site-packages\\urllib3\\util\\connection.py',
   'PYMODULE'),
  ('urllib3.contrib._appengine_environ',
   'E:\\Application\\Python\\Python39\\lib\\site-packages\\urllib3\\contrib\\_appengine_environ.py',
   'PYMODULE'),
  ('__future__',
   'E:\\Application\\Python\\Python39\\lib\\__future__.py',
   'PYMODULE'),
  ('urllib3.filepost',
   'E:\\Application\\Python\\Python39\\lib\\site-packages\\urllib3\\filepost.py',
   'PYMODULE'),
  ('urllib3.fields',
   'E:\\Application\\Python\\Python39\\lib\\site-packages\\urllib3\\fields.py',
   'PYMODULE'),
  ('requests.api',
   'E:\\Application\\Python\\Python39\\lib\\site-packages\\requests\\api.py',
   'PYMODULE'),
  ('requests.sessions',
   'E:\\Application\\Python\\Python39\\lib\\site-packages\\requests\\sessions.py',
   'PYMODULE'),
  ('requests.adapters',
   'E:\\Application\\Python\\Python39\\lib\\site-packages\\requests\\adapters.py',
   'PYMODULE'),
  ('urllib3.contrib.socks',
   'E:\\Application\\Python\\Python39\\lib\\site-packages\\urllib3\\contrib\\socks.py',
   'PYMODULE'),
  ('urllib3.connectionpool',
   'E:\\Application\\Python\\Python39\\lib\\site-packages\\urllib3\\connectionpool.py',
   'PYMODULE'),
  ('urllib3.util.ssl_match_hostname',
   'E:\\Application\\Python\\Python39\\lib\\site-packages\\urllib3\\util\\ssl_match_hostname.py',
   'PYMODULE'),
  ('ipaddress',
   'E:\\Application\\Python\\Python39\\lib\\ipaddress.py',
   'PYMODULE'),
  ('urllib3.util.queue',
   'E:\\Application\\Python\\Python39\\lib\\site-packages\\urllib3\\util\\queue.py',
   'PYMODULE'),
  ('urllib3.util.proxy',
   'E:\\Application\\Python\\Python39\\lib\\site-packages\\urllib3\\util\\proxy.py',
   'PYMODULE'),
  ('urllib3.request',
   'E:\\Application\\Python\\Python39\\lib\\site-packages\\urllib3\\request.py',
   'PYMODULE'),
  ('urllib3.connection',
   'E:\\Application\\Python\\Python39\\lib\\site-packages\\urllib3\\connection.py',
   'PYMODULE'),
  ('urllib3._version',
   'E:\\Application\\Python\\Python39\\lib\\site-packages\\urllib3\\_version.py',
   'PYMODULE'),
  ('urllib3._collections',
   'E:\\Application\\Python\\Python39\\lib\\site-packages\\urllib3\\_collections.py',
   'PYMODULE'),
  ('urllib3.response',
   'E:\\Application\\Python\\Python39\\lib\\site-packages\\urllib3\\response.py',
   'PYMODULE'),
  ('urllib3.poolmanager',
   'E:\\Application\\Python\\Python39\\lib\\site-packages\\urllib3\\poolmanager.py',
   'PYMODULE'),
  ('requests.__version__',
   'E:\\Application\\Python\\Python39\\lib\\site-packages\\requests\\__version__.py',
   'PYMODULE'),
  ('requests.utils',
   'E:\\Application\\Python\\Python39\\lib\\site-packages\\requests\\utils.py',
   'PYMODULE'),
  ('requests.certs',
   'E:\\Application\\Python\\Python39\\lib\\site-packages\\requests\\certs.py',
   'PYMODULE'),
  ('certifi',
   'E:\\Application\\Python\\Python39\\lib\\site-packages\\certifi\\__init__.py',
   'PYMODULE'),
  ('certifi.core',
   'E:\\Application\\Python\\Python39\\lib\\site-packages\\certifi\\core.py',
   'PYMODULE'),
  ('importlib.resources',
   'E:\\Application\\Python\\Python39\\lib\\importlib\\resources.py',
   'PYMODULE'),
  ('requests.packages',
   'E:\\Application\\Python\\Python39\\lib\\site-packages\\requests\\packages.py',
   'PYMODULE'),
  ('urllib3.exceptions',
   'E:\\Application\\Python\\Python39\\lib\\site-packages\\urllib3\\exceptions.py',
   'PYMODULE'),
  ('urllib3.contrib.pyopenssl',
   'E:\\Application\\Python\\Python39\\lib\\site-packages\\urllib3\\contrib\\pyopenssl.py',
   'PYMODULE'),
  ('urllib3.packages.backports.makefile',
   'E:\\Application\\Python\\Python39\\lib\\site-packages\\urllib3\\packages\\backports\\makefile.py',
   'PYMODULE'),
  ('urllib3.packages.backports',
   'E:\\Application\\Python\\Python39\\lib\\site-packages\\urllib3\\packages\\backports\\__init__.py',
   'PYMODULE'),
  ('urllib3.contrib',
   'E:\\Application\\Python\\Python39\\lib\\site-packages\\urllib3\\contrib\\__init__.py',
   'PYMODULE'),
  ('charset_normalizer',
   'E:\\Application\\Python\\Python39\\lib\\site-packages\\charset_normalizer\\__init__.py',
   'PYMODULE'),
  ('charset_normalizer.version',
   'E:\\Application\\Python\\Python39\\lib\\site-packages\\charset_normalizer\\version.py',
   'PYMODULE'),
  ('charset_normalizer.utils',
   'E:\\Application\\Python\\Python39\\lib\\site-packages\\charset_normalizer\\utils.py',
   'PYMODULE'),
  ('charset_normalizer.constant',
   'E:\\Application\\Python\\Python39\\lib\\site-packages\\charset_normalizer\\constant.py',
   'PYMODULE'),
  ('charset_normalizer.assets',
   'E:\\Application\\Python\\Python39\\lib\\site-packages\\charset_normalizer\\assets\\__init__.py',
   'PYMODULE'),
  ('charset_normalizer.models',
   'E:\\Application\\Python\\Python39\\lib\\site-packages\\charset_normalizer\\models.py',
   'PYMODULE'),
  ('charset_normalizer.cd',
   'E:\\Application\\Python\\Python39\\lib\\site-packages\\charset_normalizer\\cd.py',
   'PYMODULE'),
  ('charset_normalizer.md',
   'E:\\Application\\Python\\Python39\\lib\\site-packages\\charset_normalizer\\md.py',
   'PYMODULE'),
  ('charset_normalizer.legacy',
   'E:\\Application\\Python\\Python39\\lib\\site-packages\\charset_normalizer\\legacy.py',
   'PYMODULE'),
  ('charset_normalizer.api',
   'E:\\Application\\Python\\Python39\\lib\\site-packages\\charset_normalizer\\api.py',
   'PYMODULE'),
  ('requests.exceptions',
   'E:\\Application\\Python\\Python39\\lib\\site-packages\\requests\\exceptions.py',
   'PYMODULE'),
  ('urllib3',
   'E:\\Application\\Python\\Python39\\lib\\site-packages\\urllib3\\__init__.py',
   'PYMODULE'),
  ('csv', 'E:\\Application\\Python\\Python39\\lib\\csv.py', 'PYMODULE'),
  ('PySide2',
   'E:\\Application\\Python\\Python39\\lib\\site-packages\\PySide2\\__init__.py',
   'PYMODULE'),
  ('shiboken2',
   'E:\\Application\\Python\\Python39\\lib\\site-packages\\shiboken2\\__init__.py',
   'PYMODULE'),
  ('decimal', 'E:\\Application\\Python\\Python39\\lib\\decimal.py', 'PYMODULE'),
  ('_pydecimal',
   'E:\\Application\\Python\\Python39\\lib\\_pydecimal.py',
   'PYMODULE'),
  ('contextvars',
   'E:\\Application\\Python\\Python39\\lib\\contextvars.py',
   'PYMODULE'),
  ('ctypes',
   'E:\\Application\\Python\\Python39\\lib\\ctypes\\__init__.py',
   'PYMODULE'),
  ('ctypes._endian',
   'E:\\Application\\Python\\Python39\\lib\\ctypes\\_endian.py',
   'PYMODULE')],
 [('api-ms-win-crt-stdio-l1-1-0.dll',
   'E:\\Application\\Java\\jdk-17.0.2\\bin\\api-ms-win-crt-stdio-l1-1-0.dll',
   'BINARY'),
  ('api-ms-win-crt-math-l1-1-0.dll',
   'E:\\Application\\Java\\jdk-17.0.2\\bin\\api-ms-win-crt-math-l1-1-0.dll',
   'BINARY'),
  ('api-ms-win-crt-runtime-l1-1-0.dll',
   'E:\\Application\\Java\\jdk-17.0.2\\bin\\api-ms-win-crt-runtime-l1-1-0.dll',
   'BINARY'),
  ('python39.dll', 'E:\\Application\\Python\\Python39\\python39.dll', 'BINARY'),
  ('VCRUNTIME140.dll',
   'E:\\Application\\Python\\Python39\\VCRUNTIME140.dll',
   'BINARY'),
  ('api-ms-win-crt-locale-l1-1-0.dll',
   'E:\\Application\\Java\\jdk-17.0.2\\bin\\api-ms-win-crt-locale-l1-1-0.dll',
   'BINARY'),
  ('api-ms-win-crt-heap-l1-1-0.dll',
   'E:\\Application\\Java\\jdk-17.0.2\\bin\\api-ms-win-crt-heap-l1-1-0.dll',
   'BINARY'),
  ('ucrtbase.dll',
   'E:\\Application\\Java\\jdk-17.0.2\\bin\\ucrtbase.dll',
   'BINARY'),
  ('api-ms-win-crt-convert-l1-1-0.dll',
   'E:\\Application\\Java\\jdk-17.0.2\\bin\\api-ms-win-crt-convert-l1-1-0.dll',
   'BINARY'),
  ('api-ms-win-crt-environment-l1-1-0.dll',
   'E:\\Application\\Java\\jdk-17.0.2\\bin\\api-ms-win-crt-environment-l1-1-0.dll',
   'BINARY'),
  ('api-ms-win-crt-filesystem-l1-1-0.dll',
   'E:\\Application\\Java\\jdk-17.0.2\\bin\\api-ms-win-crt-filesystem-l1-1-0.dll',
   'BINARY'),
  ('api-ms-win-crt-conio-l1-1-0.dll',
   'E:\\Application\\Java\\jdk-17.0.2\\bin\\api-ms-win-crt-conio-l1-1-0.dll',
   'BINARY'),
  ('api-ms-win-crt-process-l1-1-0.dll',
   'E:\\Application\\Java\\jdk-17.0.2\\bin\\api-ms-win-crt-process-l1-1-0.dll',
   'BINARY'),
  ('api-ms-win-crt-time-l1-1-0.dll',
   'E:\\Application\\Java\\jdk-17.0.2\\bin\\api-ms-win-crt-time-l1-1-0.dll',
   'BINARY'),
  ('api-ms-win-crt-string-l1-1-0.dll',
   'E:\\Application\\Java\\jdk-17.0.2\\bin\\api-ms-win-crt-string-l1-1-0.dll',
   'BINARY'),
  ('api-ms-win-core-file-l2-1-0.dll',
   'E:\\Application\\Java\\jdk-17.0.2\\bin\\api-ms-win-core-file-l2-1-0.dll',
   'BINARY'),
  ('api-ms-win-core-datetime-l1-1-0.dll',
   'E:\\Application\\Java\\jdk-17.0.2\\bin\\api-ms-win-core-datetime-l1-1-0.dll',
   'BINARY'),
  ('api-ms-win-core-file-l1-1-0.dll',
   'E:\\Application\\Java\\jdk-17.0.2\\bin\\api-ms-win-core-file-l1-1-0.dll',
   'BINARY'),
  ('api-ms-win-core-rtlsupport-l1-1-0.dll',
   'E:\\Application\\Java\\jdk-17.0.2\\bin\\api-ms-win-core-rtlsupport-l1-1-0.dll',
   'BINARY'),
  ('api-ms-win-core-handle-l1-1-0.dll',
   'E:\\Application\\Java\\jdk-17.0.2\\bin\\api-ms-win-core-handle-l1-1-0.dll',
   'BINARY'),
  ('api-ms-win-core-console-l1-1-0.dll',
   'E:\\Application\\Java\\jdk-17.0.2\\bin\\api-ms-win-core-console-l1-1-0.dll',
   'BINARY'),
  ('api-ms-win-core-processenvironment-l1-1-0.dll',
   'E:\\Application\\Java\\jdk-17.0.2\\bin\\api-ms-win-core-processenvironment-l1-1-0.dll',
   'BINARY'),
  ('api-ms-win-core-errorhandling-l1-1-0.dll',
   'E:\\Application\\Java\\jdk-17.0.2\\bin\\api-ms-win-core-errorhandling-l1-1-0.dll',
   'BINARY'),
  ('api-ms-win-core-synch-l1-1-0.dll',
   'E:\\Application\\Java\\jdk-17.0.2\\bin\\api-ms-win-core-synch-l1-1-0.dll',
   'BINARY'),
  ('api-ms-win-core-heap-l1-1-0.dll',
   'E:\\Application\\Java\\jdk-17.0.2\\bin\\api-ms-win-core-heap-l1-1-0.dll',
   'BINARY'),
  ('api-ms-win-core-timezone-l1-1-0.dll',
   'E:\\Application\\Java\\jdk-17.0.2\\bin\\api-ms-win-core-timezone-l1-1-0.dll',
   'BINARY'),
  ('api-ms-win-core-synch-l1-2-0.dll',
   'E:\\Application\\Java\\jdk-17.0.2\\bin\\api-ms-win-core-synch-l1-2-0.dll',
   'BINARY'),
  ('api-ms-win-core-processthreads-l1-1-1.dll',
   'E:\\Application\\Java\\jdk-17.0.2\\bin\\api-ms-win-core-processthreads-l1-1-1.dll',
   'BINARY'),
  ('api-ms-win-core-memory-l1-1-0.dll',
   'E:\\Application\\Java\\jdk-17.0.2\\bin\\api-ms-win-core-memory-l1-1-0.dll',
   'BINARY'),
  ('api-ms-win-core-interlocked-l1-1-0.dll',
   'E:\\Application\\Java\\jdk-17.0.2\\bin\\api-ms-win-core-interlocked-l1-1-0.dll',
   'BINARY'),
  ('api-ms-win-core-namedpipe-l1-1-0.dll',
   'E:\\Application\\Java\\jdk-17.0.2\\bin\\api-ms-win-core-namedpipe-l1-1-0.dll',
   'BINARY'),
  ('api-ms-win-core-sysinfo-l1-1-0.dll',
   'E:\\Application\\Java\\jdk-17.0.2\\bin\\api-ms-win-core-sysinfo-l1-1-0.dll',
   'BINARY'),
  ('api-ms-win-core-string-l1-1-0.dll',
   'E:\\Application\\Java\\jdk-17.0.2\\bin\\api-ms-win-core-string-l1-1-0.dll',
   'BINARY'),
  ('api-ms-win-core-libraryloader-l1-1-0.dll',
   'E:\\Application\\Java\\jdk-17.0.2\\bin\\api-ms-win-core-libraryloader-l1-1-0.dll',
   'BINARY'),
  ('api-ms-win-core-localization-l1-2-0.dll',
   'E:\\Application\\Java\\jdk-17.0.2\\bin\\api-ms-win-core-localization-l1-2-0.dll',
   'BINARY'),
  ('api-ms-win-core-debug-l1-1-0.dll',
   'E:\\Application\\Java\\jdk-17.0.2\\bin\\api-ms-win-core-debug-l1-1-0.dll',
   'BINARY'),
  ('api-ms-win-core-file-l1-2-0.dll',
   'E:\\Application\\Java\\jdk-17.0.2\\bin\\api-ms-win-core-file-l1-2-0.dll',
   'BINARY'),
  ('api-ms-win-core-util-l1-1-0.dll',
   'E:\\Application\\Java\\jdk-17.0.2\\bin\\api-ms-win-core-util-l1-1-0.dll',
   'BINARY'),
  ('api-ms-win-core-profile-l1-1-0.dll',
   'E:\\Application\\Java\\jdk-17.0.2\\bin\\api-ms-win-core-profile-l1-1-0.dll',
   'BINARY'),
  ('api-ms-win-core-processthreads-l1-1-0.dll',
   'E:\\Application\\Java\\jdk-17.0.2\\bin\\api-ms-win-core-processthreads-l1-1-0.dll',
   'BINARY'),
  ('PySide2\\plugins\\styles\\qwindowsvistastyle.dll',
   'E:\\Application\\Python\\Python39\\lib\\site-packages\\PySide2\\plugins\\styles\\qwindowsvistastyle.dll',
   'BINARY'),
  ('PySide2\\plugins\\imageformats\\qwebp.dll',
   'E:\\Application\\Python\\Python39\\lib\\site-packages\\PySide2\\plugins\\imageformats\\qwebp.dll',
   'BINARY'),
  ('PySide2\\d3dcompiler_47.dll',
   'E:\\Application\\Python\\Python39\\Lib\\site-packages\\PySide2\\d3dcompiler_47.dll',
   'BINARY'),
  ('PySide2\\plugins\\imageformats\\qpdf.dll',
   'E:\\Application\\Python\\Python39\\lib\\site-packages\\PySide2\\plugins\\imageformats\\qpdf.dll',
   'BINARY'),
  ('PySide2\\plugins\\imageformats\\qgif.dll',
   'E:\\Application\\Python\\Python39\\lib\\site-packages\\PySide2\\plugins\\imageformats\\qgif.dll',
   'BINARY'),
  ('PySide2\\plugins\\imageformats\\qtga.dll',
   'E:\\Application\\Python\\Python39\\lib\\site-packages\\PySide2\\plugins\\imageformats\\qtga.dll',
   'BINARY'),
  ('PySide2\\plugins\\imageformats\\qsvg.dll',
   'E:\\Application\\Python\\Python39\\lib\\site-packages\\PySide2\\plugins\\imageformats\\qsvg.dll',
   'BINARY'),
  ('PySide2\\plugins\\platformthemes\\qxdgdesktopportal.dll',
   'E:\\Application\\Python\\Python39\\lib\\site-packages\\PySide2\\plugins\\platformthemes\\qxdgdesktopportal.dll',
   'BINARY'),
  ('PySide2\\plugins\\bearer\\qgenericbearer.dll',
   'E:\\Application\\Python\\Python39\\lib\\site-packages\\PySide2\\plugins\\bearer\\qgenericbearer.dll',
   'BINARY'),
  ('PySide2\\libEGL.dll',
   'E:\\Application\\Python\\Python39\\Lib\\site-packages\\PySide2\\libEGL.dll',
   'BINARY'),
  ('PySide2\\plugins\\platforminputcontexts\\qtvirtualkeyboardplugin.dll',
   'E:\\Application\\Python\\Python39\\lib\\site-packages\\PySide2\\plugins\\platforminputcontexts\\qtvirtualkeyboardplugin.dll',
   'BINARY'),
  ('PySide2\\plugins\\imageformats\\qicns.dll',
   'E:\\Application\\Python\\Python39\\lib\\site-packages\\PySide2\\plugins\\imageformats\\qicns.dll',
   'BINARY'),
  ('PySide2\\opengl32sw.dll',
   'E:\\Application\\Python\\Python39\\Lib\\site-packages\\PySide2\\opengl32sw.dll',
   'BINARY'),
  ('PySide2\\libGLESv2.dll',
   'E:\\Application\\Python\\Python39\\Lib\\site-packages\\PySide2\\libGLESv2.dll',
   'BINARY'),
  ('PySide2\\plugins\\imageformats\\qico.dll',
   'E:\\Application\\Python\\Python39\\lib\\site-packages\\PySide2\\plugins\\imageformats\\qico.dll',
   'BINARY'),
  ('PySide2\\plugins\\iconengines\\qsvgicon.dll',
   'E:\\Application\\Python\\Python39\\lib\\site-packages\\PySide2\\plugins\\iconengines\\qsvgicon.dll',
   'BINARY'),
  ('PySide2\\plugins\\platforms\\qoffscreen.dll',
   'E:\\Application\\Python\\Python39\\lib\\site-packages\\PySide2\\plugins\\platforms\\qoffscreen.dll',
   'BINARY'),
  ('PySide2\\plugins\\platforms\\qwebgl.dll',
   'E:\\Application\\Python\\Python39\\lib\\site-packages\\PySide2\\plugins\\platforms\\qwebgl.dll',
   'BINARY'),
  ('PySide2\\plugins\\imageformats\\qwbmp.dll',
   'E:\\Application\\Python\\Python39\\lib\\site-packages\\PySide2\\plugins\\imageformats\\qwbmp.dll',
   'BINARY'),
  ('PySide2\\plugins\\platforms\\qdirect2d.dll',
   'E:\\Application\\Python\\Python39\\lib\\site-packages\\PySide2\\plugins\\platforms\\qdirect2d.dll',
   'BINARY'),
  ('PySide2\\plugins\\platforms\\qwindows.dll',
   'E:\\Application\\Python\\Python39\\lib\\site-packages\\PySide2\\plugins\\platforms\\qwindows.dll',
   'BINARY'),
  ('PySide2\\plugins\\platforms\\qminimal.dll',
   'E:\\Application\\Python\\Python39\\lib\\site-packages\\PySide2\\plugins\\platforms\\qminimal.dll',
   'BINARY'),
  ('PySide2\\plugins\\imageformats\\qtiff.dll',
   'E:\\Application\\Python\\Python39\\lib\\site-packages\\PySide2\\plugins\\imageformats\\qtiff.dll',
   'BINARY'),
  ('PySide2\\plugins\\imageformats\\qjpeg.dll',
   'E:\\Application\\Python\\Python39\\lib\\site-packages\\PySide2\\plugins\\imageformats\\qjpeg.dll',
   'BINARY'),
  ('_hashlib',
   'E:\\Application\\Python\\Python39\\DLLs\\_hashlib.pyd',
   'EXTENSION'),
  ('_lzma', 'E:\\Application\\Python\\Python39\\DLLs\\_lzma.pyd', 'EXTENSION'),
  ('_bz2', 'E:\\Application\\Python\\Python39\\DLLs\\_bz2.pyd', 'EXTENSION'),
  ('select',
   'E:\\Application\\Python\\Python39\\DLLs\\select.pyd',
   'EXTENSION'),
  ('_socket',
   'E:\\Application\\Python\\Python39\\DLLs\\_socket.pyd',
   'EXTENSION'),
  ('unicodedata',
   'E:\\Application\\Python\\Python39\\DLLs\\unicodedata.pyd',
   'EXTENSION'),
  ('_ssl', 'E:\\Application\\Python\\Python39\\DLLs\\_ssl.pyd', 'EXTENSION'),
  ('_queue',
   'E:\\Application\\Python\\Python39\\DLLs\\_queue.pyd',
   'EXTENSION'),
  ('PySide2.QtWidgets',
   'E:\\Application\\Python\\Python39\\lib\\site-packages\\PySide2\\QtWidgets.pyd',
   'EXTENSION'),
  ('PySide2.QtGui',
   'E:\\Application\\Python\\Python39\\lib\\site-packages\\PySide2\\QtGui.pyd',
   'EXTENSION'),
  ('PySide2.QtCore',
   'E:\\Application\\Python\\Python39\\lib\\site-packages\\PySide2\\QtCore.pyd',
   'EXTENSION'),
  ('PySide2.QtNetwork',
   'E:\\Application\\Python\\Python39\\lib\\site-packages\\PySide2\\QtNetwork.pyd',
   'EXTENSION'),
  ('shiboken2.shiboken2',
   'E:\\Application\\Python\\Python39\\lib\\site-packages\\shiboken2\\shiboken2.pyd',
   'EXTENSION'),
  ('_decimal',
   'E:\\Application\\Python\\Python39\\DLLs\\_decimal.pyd',
   'EXTENSION'),
  ('_ctypes',
   'E:\\Application\\Python\\Python39\\DLLs\\_ctypes.pyd',
   'EXTENSION'),
  ('VCRUNTIME140_1.dll',
   'E:\\Application\\Python\\Python39\\VCRUNTIME140_1.dll',
   'BINARY'),
  ('PySide2\\Qt5Gui.dll',
   'E:\\Application\\Python\\Python39\\lib\\site-packages\\PySide2\\Qt5Gui.dll',
   'BINARY'),
  ('PySide2\\Qt5Widgets.dll',
   'E:\\Application\\Python\\Python39\\lib\\site-packages\\PySide2\\Qt5Widgets.dll',
   'BINARY'),
  ('PySide2\\Qt5Core.dll',
   'E:\\Application\\Python\\Python39\\lib\\site-packages\\PySide2\\Qt5Core.dll',
   'BINARY'),
  ('api-ms-win-crt-utility-l1-1-0.dll',
   'E:\\Application\\Java\\jdk-17.0.2\\bin\\api-ms-win-crt-utility-l1-1-0.dll',
   'BINARY'),
  ('PySide2\\Qt5Pdf.dll',
   'E:\\Application\\Python\\Python39\\lib\\site-packages\\PySide2\\Qt5Pdf.dll',
   'BINARY'),
  ('PySide2\\Qt5Svg.dll',
   'E:\\Application\\Python\\Python39\\lib\\site-packages\\PySide2\\Qt5Svg.dll',
   'BINARY'),
  ('PySide2\\Qt5DBus.dll',
   'E:\\Application\\Python\\Python39\\lib\\site-packages\\PySide2\\Qt5DBus.dll',
   'BINARY'),
  ('PySide2\\Qt5Network.dll',
   'E:\\Application\\Python\\Python39\\lib\\site-packages\\PySide2\\Qt5Network.dll',
   'BINARY'),
  ('PySide2\\Qt5VirtualKeyboard.dll',
   'E:\\Application\\Python\\Python39\\lib\\site-packages\\PySide2\\Qt5VirtualKeyboard.dll',
   'BINARY'),
  ('PySide2\\Qt5Qml.dll',
   'E:\\Application\\Python\\Python39\\lib\\site-packages\\PySide2\\Qt5Qml.dll',
   'BINARY'),
  ('PySide2\\vcruntime140_1.dll',
   'E:\\Application\\Python\\Python39\\Lib\\site-packages\\PySide2\\VCRUNTIME140_1.dll',
   'BINARY'),
  ('PySide2\\msvcp140.dll',
   'E:\\Application\\Python\\Python39\\Lib\\site-packages\\PySide2\\MSVCP140.dll',
   'BINARY'),
  ('shiboken2\\msvcp140.dll',
   'E:\\Application\\Python\\Python39\\lib\\site-packages\\shiboken2\\MSVCP140.dll',
   'BINARY'),
  ('PySide2\\Qt5Quick.dll',
   'E:\\Application\\Python\\Python39\\lib\\site-packages\\PySide2\\Qt5Quick.dll',
   'BINARY'),
  ('PySide2\\Qt5WebSockets.dll',
   'E:\\Application\\Python\\Python39\\lib\\site-packages\\PySide2\\Qt5WebSockets.dll',
   'BINARY'),
  ('libcrypto-1_1.dll',
   'E:\\Application\\Python\\Python39\\DLLs\\libcrypto-1_1.dll',
   'BINARY'),
  ('libssl-1_1.dll',
   'E:\\Application\\Python\\Python39\\DLLs\\libssl-1_1.dll',
   'BINARY'),
  ('shiboken2\\shiboken2.abi3.dll',
   'E:\\Application\\Python\\Python39\\lib\\site-packages\\shiboken2\\shiboken2.abi3.dll',
   'BINARY'),
  ('python3.dll', 'E:\\Application\\Python\\Python39\\python3.dll', 'BINARY'),
  ('PySide2\\pyside2.abi3.dll',
   'E:\\Application\\Python\\Python39\\lib\\site-packages\\PySide2\\pyside2.abi3.dll',
   'BINARY'),
  ('shiboken2\\vcruntime140_1.dll',
   'E:\\Application\\Python\\Python39\\lib\\site-packages\\shiboken2\\VCRUNTIME140_1.dll',
   'BINARY'),
  ('libffi-7.dll',
   'E:\\Application\\Python\\Python39\\DLLs\\libffi-7.dll',
   'BINARY'),
  ('PySide2\\msvcp140_1.dll',
   'E:\\Application\\Python\\Python39\\lib\\site-packages\\PySide2\\MSVCP140_1.dll',
   'BINARY'),
  ('PySide2\\Qt5QmlModels.dll',
   'E:\\Application\\Python\\Python39\\lib\\site-packages\\PySide2\\Qt5QmlModels.dll',
   'BINARY')],
 [],
 [],
 [('base_library.zip',
   'F:\\Subject\\C++\\GearDesignGuide\\x64\\Release\\build\\GearDesignGuide\\base_library.zip',
   'DATA'),
  ('PySide2\\translations\\qtbase_bg.qm',
   'E:\\Application\\Python\\Python39\\lib\\site-packages\\PySide2\\translations\\qtbase_bg.qm',
   'DATA'),
  ('PySide2\\translations\\qtbase_it.qm',
   'E:\\Application\\Python\\Python39\\lib\\site-packages\\PySide2\\translations\\qtbase_it.qm',
   'DATA'),
  ('PySide2\\translations\\qtbase_ar.qm',
   'E:\\Application\\Python\\Python39\\lib\\site-packages\\PySide2\\translations\\qtbase_ar.qm',
   'DATA'),
  ('PySide2\\translations\\qtbase_uk.qm',
   'E:\\Application\\Python\\Python39\\lib\\site-packages\\PySide2\\translations\\qtbase_uk.qm',
   'DATA'),
  ('PySide2\\translations\\qtbase_da.qm',
   'E:\\Application\\Python\\Python39\\lib\\site-packages\\PySide2\\translations\\qtbase_da.qm',
   'DATA'),
  ('PySide2\\translations\\qtbase_sk.qm',
   'E:\\Application\\Python\\Python39\\lib\\site-packages\\PySide2\\translations\\qtbase_sk.qm',
   'DATA'),
  ('certifi\\cacert.pem',
   'E:\\Application\\Python\\Python39\\lib\\site-packages\\certifi\\cacert.pem',
   'DATA'),
  ('PySide2\\translations\\qtbase_lv.qm',
   'E:\\Application\\Python\\Python39\\lib\\site-packages\\PySide2\\translations\\qtbase_lv.qm',
   'DATA'),
  ('certifi\\py.typed',
   'E:\\Application\\Python\\Python39\\lib\\site-packages\\certifi\\py.typed',
   'DATA'),
  ('PySide2\\translations\\qtbase_pl.qm',
   'E:\\Application\\Python\\Python39\\lib\\site-packages\\PySide2\\translations\\qtbase_pl.qm',
   'DATA'),
  ('PySide2\\translations\\qtbase_ru.qm',
   'E:\\Application\\Python\\Python39\\lib\\site-packages\\PySide2\\translations\\qtbase_ru.qm',
   'DATA'),
  ('PySide2\\translations\\qtbase_es.qm',
   'E:\\Application\\Python\\Python39\\lib\\site-packages\\PySide2\\translations\\qtbase_es.qm',
   'DATA'),
  ('PySide2\\translations\\qtbase_ca.qm',
   'E:\\Application\\Python\\Python39\\lib\\site-packages\\PySide2\\translations\\qtbase_ca.qm',
   'DATA'),
  ('PySide2\\translations\\qtbase_gd.qm',
   'E:\\Application\\Python\\Python39\\lib\\site-packages\\PySide2\\translations\\qtbase_gd.qm',
   'DATA'),
  ('PySide2\\translations\\qtbase_en.qm',
   'E:\\Application\\Python\\Python39\\lib\\site-packages\\PySide2\\translations\\qtbase_en.qm',
   'DATA'),
  ('PySide2\\translations\\qtbase_ja.qm',
   'E:\\Application\\Python\\Python39\\lib\\site-packages\\PySide2\\translations\\qtbase_ja.qm',
   'DATA'),
  ('PySide2\\translations\\qtbase_tr.qm',
   'E:\\Application\\Python\\Python39\\lib\\site-packages\\PySide2\\translations\\qtbase_tr.qm',
   'DATA'),
  ('PySide2\\translations\\qtbase_fr.qm',
   'E:\\Application\\Python\\Python39\\lib\\site-packages\\PySide2\\translations\\qtbase_fr.qm',
   'DATA'),
  ('PySide2\\translations\\qtbase_he.qm',
   'E:\\Application\\Python\\Python39\\lib\\site-packages\\PySide2\\translations\\qtbase_he.qm',
   'DATA'),
  ('PySide2\\translations\\qtbase_ko.qm',
   'E:\\Application\\Python\\Python39\\lib\\site-packages\\PySide2\\translations\\qtbase_ko.qm',
   'DATA'),
  ('PySide2\\translations\\qtbase_cs.qm',
   'E:\\Application\\Python\\Python39\\lib\\site-packages\\PySide2\\translations\\qtbase_cs.qm',
   'DATA'),
  ('PySide2\\translations\\qtbase_de.qm',
   'E:\\Application\\Python\\Python39\\lib\\site-packages\\PySide2\\translations\\qtbase_de.qm',
   'DATA'),
  ('PySide2\\translations\\qtbase_hu.qm',
   'E:\\Application\\Python\\Python39\\lib\\site-packages\\PySide2\\translations\\qtbase_hu.qm',
   'DATA'),
  ('PySide2\\translations\\qtbase_zh_TW.qm',
   'E:\\Application\\Python\\Python39\\lib\\site-packages\\PySide2\\translations\\qtbase_zh_TW.qm',
   'DATA'),
  ('PySide2\\translations\\qtbase_fi.qm',
   'E:\\Application\\Python\\Python39\\lib\\site-packages\\PySide2\\translations\\qtbase_fi.qm',
   'DATA')],
 [])
