('F:\\Subject\\C++\\GearDesignGuide\\x64\\Release\\build\\GearDesignGuide\\GearDesignGuide.pkg',
 {'BINARY': 1,
  'DATA': 1,
  'EXECUTABLE': 1,
  'EXTENSION': 1,
  'PYMODULE': 1,
  'PYSOURCE': 1,
  'PYZ': 0,
  'SPLASH': 1},
 [('PYZ-00.pyz',
   'F:\\Subject\\C++\\GearDesignGuide\\x64\\Release\\build\\GearDesignGuide\\PYZ-00.pyz',
   'PYZ'),
  ('struct',
   'F:\\Subject\\C++\\GearDesignGuide\\x64\\Release\\build\\GearDesignGuide\\localpycs\\struct.pyc',
   'PYMODULE'),
  ('pyimod01_archive',
   'F:\\Subject\\C++\\GearDesignGuide\\x64\\Release\\build\\GearDesignGuide\\localpycs\\pyimod01_archive.pyc',
   'PYMODULE'),
  ('pyimod02_importers',
   'F:\\Subject\\C++\\GearDesignGuide\\x64\\Release\\build\\GearDesignGuide\\localpycs\\pyimod02_importers.pyc',
   'PYMODULE'),
  ('pyimod03_ctypes',
   'F:\\Subject\\C++\\GearDesignGuide\\x64\\Release\\build\\GearDesignGuide\\localpycs\\pyimod03_ctypes.pyc',
   'PYMODULE'),
  ('pyimod04_pywin32',
   'F:\\Subject\\C++\\GearDesignGuide\\x64\\Release\\build\\GearDesignGuide\\localpycs\\pyimod04_pywin32.pyc',
   'PYMODULE'),
  ('pyiboot01_bootstrap',
   'E:\\Application\\Python\\Python39\\lib\\site-packages\\PyInstaller\\loader\\pyiboot01_bootstrap.py',
   'PYSOURCE'),
  ('pyi_rth_subprocess',
   'E:\\Application\\Python\\Python39\\Lib\\site-packages\\PyInstaller\\hooks\\rthooks\\pyi_rth_subprocess.py',
   'PYSOURCE'),
  ('pyi_rth_pyside2',
   'E:\\Application\\Python\\Python39\\Lib\\site-packages\\PyInstaller\\hooks\\rthooks\\pyi_rth_pyside2.py',
   'PYSOURCE'),
  ('pyi_rth_inspect',
   'E:\\Application\\Python\\Python39\\Lib\\site-packages\\PyInstaller\\hooks\\rthooks\\pyi_rth_inspect.py',
   'PYSOURCE'),
  ('GearDesignGuide',
   'F:\\Subject\\C++\\GearDesignGuide\\x64\\Release\\GearDesignGuide.py',
   'PYSOURCE'),
  ('api-ms-win-crt-stdio-l1-1-0.dll',
   'E:\\Application\\Java\\jdk-17.0.2\\bin\\api-ms-win-crt-stdio-l1-1-0.dll',
   'BINARY'),
  ('api-ms-win-crt-math-l1-1-0.dll',
   'E:\\Application\\Java\\jdk-17.0.2\\bin\\api-ms-win-crt-math-l1-1-0.dll',
   'BINARY'),
  ('api-ms-win-crt-runtime-l1-1-0.dll',
   'E:\\Application\\Java\\jdk-17.0.2\\bin\\api-ms-win-crt-runtime-l1-1-0.dll',
   'BINARY'),
  ('python39.dll', 'E:\\Application\\Python\\Python39\\python39.dll', 'BINARY'),
  ('VCRUNTIME140.dll',
   'E:\\Application\\Python\\Python39\\VCRUNTIME140.dll',
   'BINARY'),
  ('api-ms-win-crt-locale-l1-1-0.dll',
   'E:\\Application\\Java\\jdk-17.0.2\\bin\\api-ms-win-crt-locale-l1-1-0.dll',
   'BINARY'),
  ('api-ms-win-crt-heap-l1-1-0.dll',
   'E:\\Application\\Java\\jdk-17.0.2\\bin\\api-ms-win-crt-heap-l1-1-0.dll',
   'BINARY'),
  ('ucrtbase.dll',
   'E:\\Application\\Java\\jdk-17.0.2\\bin\\ucrtbase.dll',
   'BINARY'),
  ('api-ms-win-crt-convert-l1-1-0.dll',
   'E:\\Application\\Java\\jdk-17.0.2\\bin\\api-ms-win-crt-convert-l1-1-0.dll',
   'BINARY'),
  ('api-ms-win-crt-environment-l1-1-0.dll',
   'E:\\Application\\Java\\jdk-17.0.2\\bin\\api-ms-win-crt-environment-l1-1-0.dll',
   'BINARY'),
  ('api-ms-win-crt-filesystem-l1-1-0.dll',
   'E:\\Application\\Java\\jdk-17.0.2\\bin\\api-ms-win-crt-filesystem-l1-1-0.dll',
   'BINARY'),
  ('api-ms-win-crt-conio-l1-1-0.dll',
   'E:\\Application\\Java\\jdk-17.0.2\\bin\\api-ms-win-crt-conio-l1-1-0.dll',
   'BINARY'),
  ('api-ms-win-crt-process-l1-1-0.dll',
   'E:\\Application\\Java\\jdk-17.0.2\\bin\\api-ms-win-crt-process-l1-1-0.dll',
   'BINARY'),
  ('api-ms-win-crt-time-l1-1-0.dll',
   'E:\\Application\\Java\\jdk-17.0.2\\bin\\api-ms-win-crt-time-l1-1-0.dll',
   'BINARY'),
  ('api-ms-win-crt-string-l1-1-0.dll',
   'E:\\Application\\Java\\jdk-17.0.2\\bin\\api-ms-win-crt-string-l1-1-0.dll',
   'BINARY'),
  ('api-ms-win-core-file-l2-1-0.dll',
   'E:\\Application\\Java\\jdk-17.0.2\\bin\\api-ms-win-core-file-l2-1-0.dll',
   'BINARY'),
  ('api-ms-win-core-datetime-l1-1-0.dll',
   'E:\\Application\\Java\\jdk-17.0.2\\bin\\api-ms-win-core-datetime-l1-1-0.dll',
   'BINARY'),
  ('api-ms-win-core-file-l1-1-0.dll',
   'E:\\Application\\Java\\jdk-17.0.2\\bin\\api-ms-win-core-file-l1-1-0.dll',
   'BINARY'),
  ('api-ms-win-core-rtlsupport-l1-1-0.dll',
   'E:\\Application\\Java\\jdk-17.0.2\\bin\\api-ms-win-core-rtlsupport-l1-1-0.dll',
   'BINARY'),
  ('api-ms-win-core-handle-l1-1-0.dll',
   'E:\\Application\\Java\\jdk-17.0.2\\bin\\api-ms-win-core-handle-l1-1-0.dll',
   'BINARY'),
  ('api-ms-win-core-console-l1-1-0.dll',
   'E:\\Application\\Java\\jdk-17.0.2\\bin\\api-ms-win-core-console-l1-1-0.dll',
   'BINARY'),
  ('api-ms-win-core-processenvironment-l1-1-0.dll',
   'E:\\Application\\Java\\jdk-17.0.2\\bin\\api-ms-win-core-processenvironment-l1-1-0.dll',
   'BINARY'),
  ('api-ms-win-core-errorhandling-l1-1-0.dll',
   'E:\\Application\\Java\\jdk-17.0.2\\bin\\api-ms-win-core-errorhandling-l1-1-0.dll',
   'BINARY'),
  ('api-ms-win-core-synch-l1-1-0.dll',
   'E:\\Application\\Java\\jdk-17.0.2\\bin\\api-ms-win-core-synch-l1-1-0.dll',
   'BINARY'),
  ('api-ms-win-core-heap-l1-1-0.dll',
   'E:\\Application\\Java\\jdk-17.0.2\\bin\\api-ms-win-core-heap-l1-1-0.dll',
   'BINARY'),
  ('api-ms-win-core-timezone-l1-1-0.dll',
   'E:\\Application\\Java\\jdk-17.0.2\\bin\\api-ms-win-core-timezone-l1-1-0.dll',
   'BINARY'),
  ('api-ms-win-core-synch-l1-2-0.dll',
   'E:\\Application\\Java\\jdk-17.0.2\\bin\\api-ms-win-core-synch-l1-2-0.dll',
   'BINARY'),
  ('api-ms-win-core-processthreads-l1-1-1.dll',
   'E:\\Application\\Java\\jdk-17.0.2\\bin\\api-ms-win-core-processthreads-l1-1-1.dll',
   'BINARY'),
  ('api-ms-win-core-memory-l1-1-0.dll',
   'E:\\Application\\Java\\jdk-17.0.2\\bin\\api-ms-win-core-memory-l1-1-0.dll',
   'BINARY'),
  ('api-ms-win-core-interlocked-l1-1-0.dll',
   'E:\\Application\\Java\\jdk-17.0.2\\bin\\api-ms-win-core-interlocked-l1-1-0.dll',
   'BINARY'),
  ('api-ms-win-core-namedpipe-l1-1-0.dll',
   'E:\\Application\\Java\\jdk-17.0.2\\bin\\api-ms-win-core-namedpipe-l1-1-0.dll',
   'BINARY'),
  ('api-ms-win-core-sysinfo-l1-1-0.dll',
   'E:\\Application\\Java\\jdk-17.0.2\\bin\\api-ms-win-core-sysinfo-l1-1-0.dll',
   'BINARY'),
  ('api-ms-win-core-string-l1-1-0.dll',
   'E:\\Application\\Java\\jdk-17.0.2\\bin\\api-ms-win-core-string-l1-1-0.dll',
   'BINARY'),
  ('api-ms-win-core-libraryloader-l1-1-0.dll',
   'E:\\Application\\Java\\jdk-17.0.2\\bin\\api-ms-win-core-libraryloader-l1-1-0.dll',
   'BINARY'),
  ('api-ms-win-core-localization-l1-2-0.dll',
   'E:\\Application\\Java\\jdk-17.0.2\\bin\\api-ms-win-core-localization-l1-2-0.dll',
   'BINARY'),
  ('api-ms-win-core-debug-l1-1-0.dll',
   'E:\\Application\\Java\\jdk-17.0.2\\bin\\api-ms-win-core-debug-l1-1-0.dll',
   'BINARY'),
  ('api-ms-win-core-file-l1-2-0.dll',
   'E:\\Application\\Java\\jdk-17.0.2\\bin\\api-ms-win-core-file-l1-2-0.dll',
   'BINARY'),
  ('api-ms-win-core-util-l1-1-0.dll',
   'E:\\Application\\Java\\jdk-17.0.2\\bin\\api-ms-win-core-util-l1-1-0.dll',
   'BINARY'),
  ('api-ms-win-core-profile-l1-1-0.dll',
   'E:\\Application\\Java\\jdk-17.0.2\\bin\\api-ms-win-core-profile-l1-1-0.dll',
   'BINARY'),
  ('api-ms-win-core-processthreads-l1-1-0.dll',
   'E:\\Application\\Java\\jdk-17.0.2\\bin\\api-ms-win-core-processthreads-l1-1-0.dll',
   'BINARY'),
  ('PySide2\\plugins\\styles\\qwindowsvistastyle.dll',
   'E:\\Application\\Python\\Python39\\lib\\site-packages\\PySide2\\plugins\\styles\\qwindowsvistastyle.dll',
   'BINARY'),
  ('PySide2\\plugins\\imageformats\\qwebp.dll',
   'E:\\Application\\Python\\Python39\\lib\\site-packages\\PySide2\\plugins\\imageformats\\qwebp.dll',
   'BINARY'),
  ('PySide2\\d3dcompiler_47.dll',
   'E:\\Application\\Python\\Python39\\Lib\\site-packages\\PySide2\\d3dcompiler_47.dll',
   'BINARY'),
  ('PySide2\\plugins\\imageformats\\qpdf.dll',
   'E:\\Application\\Python\\Python39\\lib\\site-packages\\PySide2\\plugins\\imageformats\\qpdf.dll',
   'BINARY'),
  ('PySide2\\plugins\\imageformats\\qgif.dll',
   'E:\\Application\\Python\\Python39\\lib\\site-packages\\PySide2\\plugins\\imageformats\\qgif.dll',
   'BINARY'),
  ('PySide2\\plugins\\imageformats\\qtga.dll',
   'E:\\Application\\Python\\Python39\\lib\\site-packages\\PySide2\\plugins\\imageformats\\qtga.dll',
   'BINARY'),
  ('PySide2\\plugins\\imageformats\\qsvg.dll',
   'E:\\Application\\Python\\Python39\\lib\\site-packages\\PySide2\\plugins\\imageformats\\qsvg.dll',
   'BINARY'),
  ('PySide2\\plugins\\platformthemes\\qxdgdesktopportal.dll',
   'E:\\Application\\Python\\Python39\\lib\\site-packages\\PySide2\\plugins\\platformthemes\\qxdgdesktopportal.dll',
   'BINARY'),
  ('PySide2\\plugins\\bearer\\qgenericbearer.dll',
   'E:\\Application\\Python\\Python39\\lib\\site-packages\\PySide2\\plugins\\bearer\\qgenericbearer.dll',
   'BINARY'),
  ('PySide2\\libEGL.dll',
   'E:\\Application\\Python\\Python39\\Lib\\site-packages\\PySide2\\libEGL.dll',
   'BINARY'),
  ('PySide2\\plugins\\platforminputcontexts\\qtvirtualkeyboardplugin.dll',
   'E:\\Application\\Python\\Python39\\lib\\site-packages\\PySide2\\plugins\\platforminputcontexts\\qtvirtualkeyboardplugin.dll',
   'BINARY'),
  ('PySide2\\plugins\\imageformats\\qicns.dll',
   'E:\\Application\\Python\\Python39\\lib\\site-packages\\PySide2\\plugins\\imageformats\\qicns.dll',
   'BINARY'),
  ('PySide2\\opengl32sw.dll',
   'E:\\Application\\Python\\Python39\\Lib\\site-packages\\PySide2\\opengl32sw.dll',
   'BINARY'),
  ('PySide2\\libGLESv2.dll',
   'E:\\Application\\Python\\Python39\\Lib\\site-packages\\PySide2\\libGLESv2.dll',
   'BINARY'),
  ('PySide2\\plugins\\imageformats\\qico.dll',
   'E:\\Application\\Python\\Python39\\lib\\site-packages\\PySide2\\plugins\\imageformats\\qico.dll',
   'BINARY'),
  ('PySide2\\plugins\\iconengines\\qsvgicon.dll',
   'E:\\Application\\Python\\Python39\\lib\\site-packages\\PySide2\\plugins\\iconengines\\qsvgicon.dll',
   'BINARY'),
  ('PySide2\\plugins\\platforms\\qoffscreen.dll',
   'E:\\Application\\Python\\Python39\\lib\\site-packages\\PySide2\\plugins\\platforms\\qoffscreen.dll',
   'BINARY'),
  ('PySide2\\plugins\\platforms\\qwebgl.dll',
   'E:\\Application\\Python\\Python39\\lib\\site-packages\\PySide2\\plugins\\platforms\\qwebgl.dll',
   'BINARY'),
  ('PySide2\\plugins\\imageformats\\qwbmp.dll',
   'E:\\Application\\Python\\Python39\\lib\\site-packages\\PySide2\\plugins\\imageformats\\qwbmp.dll',
   'BINARY'),
  ('PySide2\\plugins\\platforms\\qdirect2d.dll',
   'E:\\Application\\Python\\Python39\\lib\\site-packages\\PySide2\\plugins\\platforms\\qdirect2d.dll',
   'BINARY'),
  ('PySide2\\plugins\\platforms\\qwindows.dll',
   'E:\\Application\\Python\\Python39\\lib\\site-packages\\PySide2\\plugins\\platforms\\qwindows.dll',
   'BINARY'),
  ('PySide2\\plugins\\platforms\\qminimal.dll',
   'E:\\Application\\Python\\Python39\\lib\\site-packages\\PySide2\\plugins\\platforms\\qminimal.dll',
   'BINARY'),
  ('PySide2\\plugins\\imageformats\\qtiff.dll',
   'E:\\Application\\Python\\Python39\\lib\\site-packages\\PySide2\\plugins\\imageformats\\qtiff.dll',
   'BINARY'),
  ('PySide2\\plugins\\imageformats\\qjpeg.dll',
   'E:\\Application\\Python\\Python39\\lib\\site-packages\\PySide2\\plugins\\imageformats\\qjpeg.dll',
   'BINARY'),
  ('_hashlib',
   'E:\\Application\\Python\\Python39\\DLLs\\_hashlib.pyd',
   'EXTENSION'),
  ('_lzma', 'E:\\Application\\Python\\Python39\\DLLs\\_lzma.pyd', 'EXTENSION'),
  ('_bz2', 'E:\\Application\\Python\\Python39\\DLLs\\_bz2.pyd', 'EXTENSION'),
  ('select',
   'E:\\Application\\Python\\Python39\\DLLs\\select.pyd',
   'EXTENSION'),
  ('_socket',
   'E:\\Application\\Python\\Python39\\DLLs\\_socket.pyd',
   'EXTENSION'),
  ('unicodedata',
   'E:\\Application\\Python\\Python39\\DLLs\\unicodedata.pyd',
   'EXTENSION'),
  ('_ssl', 'E:\\Application\\Python\\Python39\\DLLs\\_ssl.pyd', 'EXTENSION'),
  ('_queue',
   'E:\\Application\\Python\\Python39\\DLLs\\_queue.pyd',
   'EXTENSION'),
  ('PySide2.QtWidgets',
   'E:\\Application\\Python\\Python39\\lib\\site-packages\\PySide2\\QtWidgets.pyd',
   'EXTENSION'),
  ('PySide2.QtGui',
   'E:\\Application\\Python\\Python39\\lib\\site-packages\\PySide2\\QtGui.pyd',
   'EXTENSION'),
  ('PySide2.QtCore',
   'E:\\Application\\Python\\Python39\\lib\\site-packages\\PySide2\\QtCore.pyd',
   'EXTENSION'),
  ('PySide2.QtNetwork',
   'E:\\Application\\Python\\Python39\\lib\\site-packages\\PySide2\\QtNetwork.pyd',
   'EXTENSION'),
  ('shiboken2.shiboken2',
   'E:\\Application\\Python\\Python39\\lib\\site-packages\\shiboken2\\shiboken2.pyd',
   'EXTENSION'),
  ('_decimal',
   'E:\\Application\\Python\\Python39\\DLLs\\_decimal.pyd',
   'EXTENSION'),
  ('_ctypes',
   'E:\\Application\\Python\\Python39\\DLLs\\_ctypes.pyd',
   'EXTENSION'),
  ('VCRUNTIME140_1.dll',
   'E:\\Application\\Python\\Python39\\VCRUNTIME140_1.dll',
   'BINARY'),
  ('PySide2\\Qt5Gui.dll',
   'E:\\Application\\Python\\Python39\\lib\\site-packages\\PySide2\\Qt5Gui.dll',
   'BINARY'),
  ('PySide2\\Qt5Widgets.dll',
   'E:\\Application\\Python\\Python39\\lib\\site-packages\\PySide2\\Qt5Widgets.dll',
   'BINARY'),
  ('PySide2\\Qt5Core.dll',
   'E:\\Application\\Python\\Python39\\lib\\site-packages\\PySide2\\Qt5Core.dll',
   'BINARY'),
  ('api-ms-win-crt-utility-l1-1-0.dll',
   'E:\\Application\\Java\\jdk-17.0.2\\bin\\api-ms-win-crt-utility-l1-1-0.dll',
   'BINARY'),
  ('PySide2\\Qt5Pdf.dll',
   'E:\\Application\\Python\\Python39\\lib\\site-packages\\PySide2\\Qt5Pdf.dll',
   'BINARY'),
  ('PySide2\\Qt5Svg.dll',
   'E:\\Application\\Python\\Python39\\lib\\site-packages\\PySide2\\Qt5Svg.dll',
   'BINARY'),
  ('PySide2\\Qt5DBus.dll',
   'E:\\Application\\Python\\Python39\\lib\\site-packages\\PySide2\\Qt5DBus.dll',
   'BINARY'),
  ('PySide2\\Qt5Network.dll',
   'E:\\Application\\Python\\Python39\\lib\\site-packages\\PySide2\\Qt5Network.dll',
   'BINARY'),
  ('PySide2\\Qt5VirtualKeyboard.dll',
   'E:\\Application\\Python\\Python39\\lib\\site-packages\\PySide2\\Qt5VirtualKeyboard.dll',
   'BINARY'),
  ('PySide2\\Qt5Qml.dll',
   'E:\\Application\\Python\\Python39\\lib\\site-packages\\PySide2\\Qt5Qml.dll',
   'BINARY'),
  ('PySide2\\vcruntime140_1.dll',
   'E:\\Application\\Python\\Python39\\Lib\\site-packages\\PySide2\\VCRUNTIME140_1.dll',
   'BINARY'),
  ('PySide2\\msvcp140.dll',
   'E:\\Application\\Python\\Python39\\Lib\\site-packages\\PySide2\\MSVCP140.dll',
   'BINARY'),
  ('shiboken2\\msvcp140.dll',
   'E:\\Application\\Python\\Python39\\lib\\site-packages\\shiboken2\\MSVCP140.dll',
   'BINARY'),
  ('PySide2\\Qt5Quick.dll',
   'E:\\Application\\Python\\Python39\\lib\\site-packages\\PySide2\\Qt5Quick.dll',
   'BINARY'),
  ('PySide2\\Qt5WebSockets.dll',
   'E:\\Application\\Python\\Python39\\lib\\site-packages\\PySide2\\Qt5WebSockets.dll',
   'BINARY'),
  ('libcrypto-1_1.dll',
   'E:\\Application\\Python\\Python39\\DLLs\\libcrypto-1_1.dll',
   'BINARY'),
  ('libssl-1_1.dll',
   'E:\\Application\\Python\\Python39\\DLLs\\libssl-1_1.dll',
   'BINARY'),
  ('shiboken2\\shiboken2.abi3.dll',
   'E:\\Application\\Python\\Python39\\lib\\site-packages\\shiboken2\\shiboken2.abi3.dll',
   'BINARY'),
  ('python3.dll', 'E:\\Application\\Python\\Python39\\python3.dll', 'BINARY'),
  ('PySide2\\pyside2.abi3.dll',
   'E:\\Application\\Python\\Python39\\lib\\site-packages\\PySide2\\pyside2.abi3.dll',
   'BINARY'),
  ('shiboken2\\vcruntime140_1.dll',
   'E:\\Application\\Python\\Python39\\lib\\site-packages\\shiboken2\\VCRUNTIME140_1.dll',
   'BINARY'),
  ('libffi-7.dll',
   'E:\\Application\\Python\\Python39\\DLLs\\libffi-7.dll',
   'BINARY'),
  ('PySide2\\msvcp140_1.dll',
   'E:\\Application\\Python\\Python39\\lib\\site-packages\\PySide2\\MSVCP140_1.dll',
   'BINARY'),
  ('PySide2\\Qt5QmlModels.dll',
   'E:\\Application\\Python\\Python39\\lib\\site-packages\\PySide2\\Qt5QmlModels.dll',
   'BINARY'),
  ('base_library.zip',
   'F:\\Subject\\C++\\GearDesignGuide\\x64\\Release\\build\\GearDesignGuide\\base_library.zip',
   'DATA'),
  ('PySide2\\translations\\qtbase_bg.qm',
   'E:\\Application\\Python\\Python39\\lib\\site-packages\\PySide2\\translations\\qtbase_bg.qm',
   'DATA'),
  ('PySide2\\translations\\qtbase_it.qm',
   'E:\\Application\\Python\\Python39\\lib\\site-packages\\PySide2\\translations\\qtbase_it.qm',
   'DATA'),
  ('PySide2\\translations\\qtbase_ar.qm',
   'E:\\Application\\Python\\Python39\\lib\\site-packages\\PySide2\\translations\\qtbase_ar.qm',
   'DATA'),
  ('PySide2\\translations\\qtbase_uk.qm',
   'E:\\Application\\Python\\Python39\\lib\\site-packages\\PySide2\\translations\\qtbase_uk.qm',
   'DATA'),
  ('PySide2\\translations\\qtbase_da.qm',
   'E:\\Application\\Python\\Python39\\lib\\site-packages\\PySide2\\translations\\qtbase_da.qm',
   'DATA'),
  ('PySide2\\translations\\qtbase_sk.qm',
   'E:\\Application\\Python\\Python39\\lib\\site-packages\\PySide2\\translations\\qtbase_sk.qm',
   'DATA'),
  ('certifi\\cacert.pem',
   'E:\\Application\\Python\\Python39\\lib\\site-packages\\certifi\\cacert.pem',
   'DATA'),
  ('PySide2\\translations\\qtbase_lv.qm',
   'E:\\Application\\Python\\Python39\\lib\\site-packages\\PySide2\\translations\\qtbase_lv.qm',
   'DATA'),
  ('certifi\\py.typed',
   'E:\\Application\\Python\\Python39\\lib\\site-packages\\certifi\\py.typed',
   'DATA'),
  ('PySide2\\translations\\qtbase_pl.qm',
   'E:\\Application\\Python\\Python39\\lib\\site-packages\\PySide2\\translations\\qtbase_pl.qm',
   'DATA'),
  ('PySide2\\translations\\qtbase_ru.qm',
   'E:\\Application\\Python\\Python39\\lib\\site-packages\\PySide2\\translations\\qtbase_ru.qm',
   'DATA'),
  ('PySide2\\translations\\qtbase_es.qm',
   'E:\\Application\\Python\\Python39\\lib\\site-packages\\PySide2\\translations\\qtbase_es.qm',
   'DATA'),
  ('PySide2\\translations\\qtbase_ca.qm',
   'E:\\Application\\Python\\Python39\\lib\\site-packages\\PySide2\\translations\\qtbase_ca.qm',
   'DATA'),
  ('PySide2\\translations\\qtbase_gd.qm',
   'E:\\Application\\Python\\Python39\\lib\\site-packages\\PySide2\\translations\\qtbase_gd.qm',
   'DATA'),
  ('PySide2\\translations\\qtbase_en.qm',
   'E:\\Application\\Python\\Python39\\lib\\site-packages\\PySide2\\translations\\qtbase_en.qm',
   'DATA'),
  ('PySide2\\translations\\qtbase_ja.qm',
   'E:\\Application\\Python\\Python39\\lib\\site-packages\\PySide2\\translations\\qtbase_ja.qm',
   'DATA'),
  ('PySide2\\translations\\qtbase_tr.qm',
   'E:\\Application\\Python\\Python39\\lib\\site-packages\\PySide2\\translations\\qtbase_tr.qm',
   'DATA'),
  ('PySide2\\translations\\qtbase_fr.qm',
   'E:\\Application\\Python\\Python39\\lib\\site-packages\\PySide2\\translations\\qtbase_fr.qm',
   'DATA'),
  ('PySide2\\translations\\qtbase_he.qm',
   'E:\\Application\\Python\\Python39\\lib\\site-packages\\PySide2\\translations\\qtbase_he.qm',
   'DATA'),
  ('PySide2\\translations\\qtbase_ko.qm',
   'E:\\Application\\Python\\Python39\\lib\\site-packages\\PySide2\\translations\\qtbase_ko.qm',
   'DATA'),
  ('PySide2\\translations\\qtbase_cs.qm',
   'E:\\Application\\Python\\Python39\\lib\\site-packages\\PySide2\\translations\\qtbase_cs.qm',
   'DATA'),
  ('PySide2\\translations\\qtbase_de.qm',
   'E:\\Application\\Python\\Python39\\lib\\site-packages\\PySide2\\translations\\qtbase_de.qm',
   'DATA'),
  ('PySide2\\translations\\qtbase_hu.qm',
   'E:\\Application\\Python\\Python39\\lib\\site-packages\\PySide2\\translations\\qtbase_hu.qm',
   'DATA'),
  ('PySide2\\translations\\qtbase_zh_TW.qm',
   'E:\\Application\\Python\\Python39\\lib\\site-packages\\PySide2\\translations\\qtbase_zh_TW.qm',
   'DATA'),
  ('PySide2\\translations\\qtbase_fi.qm',
   'E:\\Application\\Python\\Python39\\lib\\site-packages\\PySide2\\translations\\qtbase_fi.qm',
   'DATA')],
 False,
 False,
 True,
 [],
 None,
 None,
 None)
