('F:\\Subject\\C++\\GearDesignGuide\\x64\\Release\\dist\\GearDesignGuideUpDate.exe',
 True,
 False,
 False,
 ['F:\\Subject\\C++\\GearDesignGuide\\x64\\Release\\LOGO1.ico'],
 None,
 False,
 False,
 '<?xml version="1.0" encoding="UTF-8" standalone="yes"?><assembly xmlns="urn:schemas-microsoft-com:asm.v1" manifestVersion="1.0"><assemblyIdentity type="win32" name="GearDesignGuideUpDate" processorArchitecture="amd64" version="1.0.0.0"/><trustInfo xmlns="urn:schemas-microsoft-com:asm.v3"><security><requestedPrivileges><requestedExecutionLevel level="asInvoker" uiAccess="false"/></requestedPrivileges></security></trustInfo><dependency><dependentAssembly><assemblyIdentity type="win32" name="Microsoft.Windows.Common-Controls" language="*" processorArchitecture="*" version="6.0.0.0" publicKeyToken="6595b64144ccf1df"/></dependentAssembly></dependency><compatibility xmlns="urn:schemas-microsoft-com:compatibility.v1"><application><supportedOS Id="{e2011457-1546-43c5-a5fe-008deee3d3f0}"/><supportedOS Id="{35138b9a-5d96-4fbd-8e2d-a2440225f93a}"/><supportedOS Id="{4a2f28e3-53b9-4441-ba9c-d69d4a4a6e38}"/><supportedOS Id="{1f676c76-80e1-4239-95bb-83d0f6d0da78}"/><supportedOS Id="{8e0f7a12-bfb3-4fe8-b9a5-48fd50a15a9a}"/></application></compatibility><application xmlns="urn:schemas-microsoft-com:asm.v3"><windowsSettings><longPathAware xmlns="http://schemas.microsoft.com/SMI/2016/WindowsSettings">true</longPathAware></windowsSettings></application></assembly>',
 True,
 True,
 False,
 None,
 None,
 None,
 'F:\\Subject\\C++\\GearDesignGuide\\x64\\Release\\build\\GearDesignGuideUpDate\\GearDesignGuideUpDate.pkg',
 [('PYZ-00.pyz',
   'F:\\Subject\\C++\\GearDesignGuide\\x64\\Release\\build\\GearDesignGuideUpDate\\PYZ-00.pyz',
   'PYZ'),
  ('struct',
   'F:\\Subject\\C++\\GearDesignGuide\\x64\\Release\\build\\GearDesignGuideUpDate\\localpycs\\struct.pyc',
   'PYMODULE'),
  ('pyimod01_archive',
   'F:\\Subject\\C++\\GearDesignGuide\\x64\\Release\\build\\GearDesignGuideUpDate\\localpycs\\pyimod01_archive.pyc',
   'PYMODULE'),
  ('pyimod02_importers',
   'F:\\Subject\\C++\\GearDesignGuide\\x64\\Release\\build\\GearDesignGuideUpDate\\localpycs\\pyimod02_importers.pyc',
   'PYMODULE'),
  ('pyimod03_ctypes',
   'F:\\Subject\\C++\\GearDesignGuide\\x64\\Release\\build\\GearDesignGuideUpDate\\localpycs\\pyimod03_ctypes.pyc',
   'PYMODULE'),
  ('pyimod04_pywin32',
   'F:\\Subject\\C++\\GearDesignGuide\\x64\\Release\\build\\GearDesignGuideUpDate\\localpycs\\pyimod04_pywin32.pyc',
   'PYMODULE'),
  ('pyiboot01_bootstrap',
   'E:\\Application\\Python\\Python39\\lib\\site-packages\\PyInstaller\\loader\\pyiboot01_bootstrap.py',
   'PYSOURCE'),
  ('pyi_rth_subprocess',
   'E:\\Application\\Python\\Python39\\Lib\\site-packages\\PyInstaller\\hooks\\rthooks\\pyi_rth_subprocess.py',
   'PYSOURCE'),
  ('GearDesignGuideUpDate',
   'F:\\Subject\\C++\\GearDesignGuide\\x64\\Release\\GearDesignGuideUpDate.py',
   'PYSOURCE'),
  ('api-ms-win-crt-stdio-l1-1-0.dll',
   'E:\\Application\\Java\\jdk-17.0.2\\bin\\api-ms-win-crt-stdio-l1-1-0.dll',
   'BINARY'),
  ('python39.dll', 'E:\\Application\\Python\\Python39\\python39.dll', 'BINARY'),
  ('api-ms-win-crt-heap-l1-1-0.dll',
   'E:\\Application\\Java\\jdk-17.0.2\\bin\\api-ms-win-crt-heap-l1-1-0.dll',
   'BINARY'),
  ('VCRUNTIME140.dll',
   'E:\\Application\\Python\\Python39\\VCRUNTIME140.dll',
   'BINARY'),
  ('api-ms-win-crt-runtime-l1-1-0.dll',
   'E:\\Application\\Java\\jdk-17.0.2\\bin\\api-ms-win-crt-runtime-l1-1-0.dll',
   'BINARY'),
  ('api-ms-win-crt-math-l1-1-0.dll',
   'E:\\Application\\Java\\jdk-17.0.2\\bin\\api-ms-win-crt-math-l1-1-0.dll',
   'BINARY'),
  ('api-ms-win-crt-locale-l1-1-0.dll',
   'E:\\Application\\Java\\jdk-17.0.2\\bin\\api-ms-win-crt-locale-l1-1-0.dll',
   'BINARY'),
  ('ucrtbase.dll',
   'E:\\Application\\Java\\jdk-17.0.2\\bin\\ucrtbase.dll',
   'BINARY'),
  ('api-ms-win-crt-filesystem-l1-1-0.dll',
   'E:\\Application\\Java\\jdk-17.0.2\\bin\\api-ms-win-crt-filesystem-l1-1-0.dll',
   'BINARY'),
  ('api-ms-win-crt-convert-l1-1-0.dll',
   'E:\\Application\\Java\\jdk-17.0.2\\bin\\api-ms-win-crt-convert-l1-1-0.dll',
   'BINARY'),
  ('api-ms-win-crt-process-l1-1-0.dll',
   'E:\\Application\\Java\\jdk-17.0.2\\bin\\api-ms-win-crt-process-l1-1-0.dll',
   'BINARY'),
  ('api-ms-win-crt-conio-l1-1-0.dll',
   'E:\\Application\\Java\\jdk-17.0.2\\bin\\api-ms-win-crt-conio-l1-1-0.dll',
   'BINARY'),
  ('api-ms-win-crt-environment-l1-1-0.dll',
   'E:\\Application\\Java\\jdk-17.0.2\\bin\\api-ms-win-crt-environment-l1-1-0.dll',
   'BINARY'),
  ('api-ms-win-crt-string-l1-1-0.dll',
   'E:\\Application\\Java\\jdk-17.0.2\\bin\\api-ms-win-crt-string-l1-1-0.dll',
   'BINARY'),
  ('api-ms-win-crt-time-l1-1-0.dll',
   'E:\\Application\\Java\\jdk-17.0.2\\bin\\api-ms-win-crt-time-l1-1-0.dll',
   'BINARY'),
  ('api-ms-win-core-synch-l1-2-0.dll',
   'E:\\Application\\Java\\jdk-17.0.2\\bin\\api-ms-win-core-synch-l1-2-0.dll',
   'BINARY'),
  ('api-ms-win-core-datetime-l1-1-0.dll',
   'E:\\Application\\Java\\jdk-17.0.2\\bin\\api-ms-win-core-datetime-l1-1-0.dll',
   'BINARY'),
  ('api-ms-win-core-sysinfo-l1-1-0.dll',
   'E:\\Application\\Java\\jdk-17.0.2\\bin\\api-ms-win-core-sysinfo-l1-1-0.dll',
   'BINARY'),
  ('api-ms-win-core-synch-l1-1-0.dll',
   'E:\\Application\\Java\\jdk-17.0.2\\bin\\api-ms-win-core-synch-l1-1-0.dll',
   'BINARY'),
  ('api-ms-win-core-file-l1-1-0.dll',
   'E:\\Application\\Java\\jdk-17.0.2\\bin\\api-ms-win-core-file-l1-1-0.dll',
   'BINARY'),
  ('api-ms-win-core-rtlsupport-l1-1-0.dll',
   'E:\\Application\\Java\\jdk-17.0.2\\bin\\api-ms-win-core-rtlsupport-l1-1-0.dll',
   'BINARY'),
  ('api-ms-win-core-profile-l1-1-0.dll',
   'E:\\Application\\Java\\jdk-17.0.2\\bin\\api-ms-win-core-profile-l1-1-0.dll',
   'BINARY'),
  ('api-ms-win-core-heap-l1-1-0.dll',
   'E:\\Application\\Java\\jdk-17.0.2\\bin\\api-ms-win-core-heap-l1-1-0.dll',
   'BINARY'),
  ('api-ms-win-core-console-l1-1-0.dll',
   'E:\\Application\\Java\\jdk-17.0.2\\bin\\api-ms-win-core-console-l1-1-0.dll',
   'BINARY'),
  ('api-ms-win-core-memory-l1-1-0.dll',
   'E:\\Application\\Java\\jdk-17.0.2\\bin\\api-ms-win-core-memory-l1-1-0.dll',
   'BINARY'),
  ('api-ms-win-core-libraryloader-l1-1-0.dll',
   'E:\\Application\\Java\\jdk-17.0.2\\bin\\api-ms-win-core-libraryloader-l1-1-0.dll',
   'BINARY'),
  ('api-ms-win-core-debug-l1-1-0.dll',
   'E:\\Application\\Java\\jdk-17.0.2\\bin\\api-ms-win-core-debug-l1-1-0.dll',
   'BINARY'),
  ('api-ms-win-core-timezone-l1-1-0.dll',
   'E:\\Application\\Java\\jdk-17.0.2\\bin\\api-ms-win-core-timezone-l1-1-0.dll',
   'BINARY'),
  ('api-ms-win-core-file-l1-2-0.dll',
   'E:\\Application\\Java\\jdk-17.0.2\\bin\\api-ms-win-core-file-l1-2-0.dll',
   'BINARY'),
  ('api-ms-win-core-file-l2-1-0.dll',
   'E:\\Application\\Java\\jdk-17.0.2\\bin\\api-ms-win-core-file-l2-1-0.dll',
   'BINARY'),
  ('api-ms-win-core-localization-l1-2-0.dll',
   'E:\\Application\\Java\\jdk-17.0.2\\bin\\api-ms-win-core-localization-l1-2-0.dll',
   'BINARY'),
  ('api-ms-win-core-string-l1-1-0.dll',
   'E:\\Application\\Java\\jdk-17.0.2\\bin\\api-ms-win-core-string-l1-1-0.dll',
   'BINARY'),
  ('api-ms-win-core-namedpipe-l1-1-0.dll',
   'E:\\Application\\Java\\jdk-17.0.2\\bin\\api-ms-win-core-namedpipe-l1-1-0.dll',
   'BINARY'),
  ('api-ms-win-core-processenvironment-l1-1-0.dll',
   'E:\\Application\\Java\\jdk-17.0.2\\bin\\api-ms-win-core-processenvironment-l1-1-0.dll',
   'BINARY'),
  ('api-ms-win-core-errorhandling-l1-1-0.dll',
   'E:\\Application\\Java\\jdk-17.0.2\\bin\\api-ms-win-core-errorhandling-l1-1-0.dll',
   'BINARY'),
  ('api-ms-win-core-processthreads-l1-1-0.dll',
   'E:\\Application\\Java\\jdk-17.0.2\\bin\\api-ms-win-core-processthreads-l1-1-0.dll',
   'BINARY'),
  ('api-ms-win-core-util-l1-1-0.dll',
   'E:\\Application\\Java\\jdk-17.0.2\\bin\\api-ms-win-core-util-l1-1-0.dll',
   'BINARY'),
  ('api-ms-win-core-interlocked-l1-1-0.dll',
   'E:\\Application\\Java\\jdk-17.0.2\\bin\\api-ms-win-core-interlocked-l1-1-0.dll',
   'BINARY'),
  ('api-ms-win-core-handle-l1-1-0.dll',
   'E:\\Application\\Java\\jdk-17.0.2\\bin\\api-ms-win-core-handle-l1-1-0.dll',
   'BINARY'),
  ('api-ms-win-core-processthreads-l1-1-1.dll',
   'E:\\Application\\Java\\jdk-17.0.2\\bin\\api-ms-win-core-processthreads-l1-1-1.dll',
   'BINARY'),
  ('select',
   'E:\\Application\\Python\\Python39\\DLLs\\select.pyd',
   'EXTENSION'),
  ('_decimal',
   'E:\\Application\\Python\\Python39\\DLLs\\_decimal.pyd',
   'EXTENSION'),
  ('_hashlib',
   'E:\\Application\\Python\\Python39\\DLLs\\_hashlib.pyd',
   'EXTENSION'),
  ('_socket',
   'E:\\Application\\Python\\Python39\\DLLs\\_socket.pyd',
   'EXTENSION'),
  ('_lzma', 'E:\\Application\\Python\\Python39\\DLLs\\_lzma.pyd', 'EXTENSION'),
  ('_bz2', 'E:\\Application\\Python\\Python39\\DLLs\\_bz2.pyd', 'EXTENSION'),
  ('_ssl', 'E:\\Application\\Python\\Python39\\DLLs\\_ssl.pyd', 'EXTENSION'),
  ('unicodedata',
   'E:\\Application\\Python\\Python39\\DLLs\\unicodedata.pyd',
   'EXTENSION'),
  ('_queue',
   'E:\\Application\\Python\\Python39\\DLLs\\_queue.pyd',
   'EXTENSION'),
  ('libcrypto-1_1.dll',
   'E:\\Application\\Python\\Python39\\DLLs\\libcrypto-1_1.dll',
   'BINARY'),
  ('libssl-1_1.dll',
   'E:\\Application\\Python\\Python39\\DLLs\\libssl-1_1.dll',
   'BINARY'),
  ('api-ms-win-crt-utility-l1-1-0.dll',
   'E:\\Application\\Java\\jdk-17.0.2\\bin\\api-ms-win-crt-utility-l1-1-0.dll',
   'BINARY'),
  ('base_library.zip',
   'F:\\Subject\\C++\\GearDesignGuide\\x64\\Release\\build\\GearDesignGuideUpDate\\base_library.zip',
   'DATA'),
  ('certifi\\py.typed',
   'E:\\Application\\Python\\Python39\\lib\\site-packages\\certifi\\py.typed',
   'DATA'),
  ('certifi\\cacert.pem',
   'E:\\Application\\Python\\Python39\\lib\\site-packages\\certifi\\cacert.pem',
   'DATA')],
 [],
 False,
 True,
 1666751842,
 [('run.exe',
   'E:\\Application\\Python\\Python39\\lib\\site-packages\\PyInstaller\\bootloader\\Windows-64bit\\run.exe',
   'EXECUTABLE')])
